^D:\ZTU\ASD LOKTIKOVA\ASDMODULE\BELLMANFORDALGORITHM\X64\DEBUG\BELLMANFORDALGORITHM.OBJ
D:\ZTU\ASD LOKTIKOVA\ASDMODULE\X64\DEBUG\BELLMANFORDALGORITHM.EXE
D:\ZTU\ASD LOKTIKOVA\ASDMODULE\BELLMANFORDALGORITHM\X64\DEBUG\BELLMANFORDALGORITHM.ILK
D:\ZTU\ASD LOKTIKOVA\ASDMODULE\X64\DEBUG\BELLMANFORDALGORITHM.PDB
